EESchema Schematic File Version 2
LIBS:ti
LIBS:power
LIBS:device
LIBS:transistors
LIBS:conn
LIBS:linear
LIBS:regul
LIBS:74xx
LIBS:cmos4000
LIBS:adc-dac
LIBS:memory
LIBS:xilinx
LIBS:microcontrollers
LIBS:dsp
LIBS:microchip
LIBS:analog_switches
LIBS:motorola
LIBS:texas
LIBS:intel
LIBS:audio
LIBS:interface
LIBS:digital-audio
LIBS:philips
LIBS:display
LIBS:cypress
LIBS:siliconi
LIBS:opto
LIBS:atmel
LIBS:contrib
LIBS:valves
LIBS:epygma-cache
EELAYER 25 0
EELAYER END
$Descr A3 11693 16535 portrait
encoding utf-8
Sheet 1 1
Title "EPYGMA"
Date "2017-04-28"
Rev ""
Comp ""
Comment1 "Needs Lib: https://github.com/aleksmk/kicad-libs"
Comment2 "Needs Lib: https://github.com/KiCad/Connectors.pretty"
Comment3 ""
Comment4 ""
$EndDescr
$Comp
L CONN_01X02 P?
U 1 1 59030455
P 3750 750
F 0 "P?" H 3750 900 50  0000 C CNN
F 1 "4052-Drive" V 3850 750 50  0000 C CNN
F 2 "" H 3750 750 50  0000 C CNN
F 3 "" H 3750 750 50  0000 C CNN
	1    3750 750 
	-1   0    0    -1  
$EndComp
$Comp
L TLC5926 U?
U 1 1 591F434E
P 9800 2550
F 0 "U?" H 9800 1850 50  0000 C CNN
F 1 "TLC5926" H 9800 3250 50  0000 C CNN
F 2 "" H 9800 2650 60  0000 C CNN
F 3 "" H 9800 2650 60  0000 C CNN
	1    9800 2550
	1    0    0    -1  
$EndComp
$Comp
L LED D?
U 1 1 591F618E
P 11000 3650
F 0 "D?" H 11100 3600 50  0000 C CNN
F 1 "LED" H 11000 3550 50  0001 C CNN
F 2 "" H 11000 3650 50  0001 C CNN
F 3 "" H 11000 3650 50  0001 C CNN
	1    11000 3650
	0    -1   1    0   
$EndComp
$Comp
L LED D?
U 1 1 591F6277
P 10900 4050
F 0 "D?" H 11000 4000 50  0000 C CNN
F 1 "LED" H 10900 3950 50  0001 C CNN
F 2 "" H 10900 4050 50  0001 C CNN
F 3 "" H 10900 4050 50  0001 C CNN
	1    10900 4050
	0    -1   1    0   
$EndComp
$Comp
L LED D?
U 1 1 591F62D4
P 10800 4450
F 0 "D?" H 10900 4400 50  0000 C CNN
F 1 "LED" H 10800 4350 50  0001 C CNN
F 2 "" H 10800 4450 50  0001 C CNN
F 3 "" H 10800 4450 50  0001 C CNN
	1    10800 4450
	0    -1   1    0   
$EndComp
$Comp
L LED D?
U 1 1 591F6429
P 10700 3650
F 0 "D?" H 10800 3600 50  0000 C CNN
F 1 "LED" H 10700 3550 50  0001 C CNN
F 2 "" H 10700 3650 50  0001 C CNN
F 3 "" H 10700 3650 50  0001 C CNN
	1    10700 3650
	0    -1   1    0   
$EndComp
$Comp
L LED D?
U 1 1 591F64A0
P 10400 3650
F 0 "D?" H 10500 3600 50  0000 C CNN
F 1 "LED" H 10400 3550 50  0001 C CNN
F 2 "" H 10400 3650 50  0001 C CNN
F 3 "" H 10400 3650 50  0001 C CNN
	1    10400 3650
	0    -1   1    0   
$EndComp
$Comp
L LED D?
U 1 1 591F64EE
P 10600 4050
F 0 "D?" H 10700 4000 50  0000 C CNN
F 1 "LED" H 10600 3950 50  0001 C CNN
F 2 "" H 10600 4050 50  0001 C CNN
F 3 "" H 10600 4050 50  0001 C CNN
	1    10600 4050
	0    -1   1    0   
$EndComp
$Comp
L LED D?
U 1 1 591F653F
P 10500 4450
F 0 "D?" H 10600 4400 50  0000 C CNN
F 1 "LED" H 10500 4350 50  0001 C CNN
F 2 "" H 10500 4450 50  0001 C CNN
F 3 "" H 10500 4450 50  0001 C CNN
	1    10500 4450
	0    -1   1    0   
$EndComp
$Comp
L LED D?
U 1 1 591F6597
P 10300 4050
F 0 "D?" H 10400 4000 50  0000 C CNN
F 1 "LED" H 10300 3950 50  0001 C CNN
F 2 "" H 10300 4050 50  0001 C CNN
F 3 "" H 10300 4050 50  0001 C CNN
	1    10300 4050
	0    -1   1    0   
$EndComp
$Comp
L LED D?
U 1 1 591F69ED
P 9350 3650
F 0 "D?" H 9450 3600 50  0000 C CNN
F 1 "LED" H 9350 3550 50  0001 C CNN
F 2 "" H 9350 3650 50  0001 C CNN
F 3 "" H 9350 3650 50  0001 C CNN
	1    9350 3650
	0    -1   1    0   
$EndComp
$Comp
L LED D?
U 1 1 591F69F3
P 9250 4050
F 0 "D?" H 9350 4000 50  0000 C CNN
F 1 "LED" H 9250 3950 50  0001 C CNN
F 2 "" H 9250 4050 50  0001 C CNN
F 3 "" H 9250 4050 50  0001 C CNN
	1    9250 4050
	0    -1   1    0   
$EndComp
$Comp
L LED D?
U 1 1 591F69F9
P 9150 4450
F 0 "D?" H 9250 4400 50  0000 C CNN
F 1 "LED" H 9150 4350 50  0001 C CNN
F 2 "" H 9150 4450 50  0001 C CNN
F 3 "" H 9150 4450 50  0001 C CNN
	1    9150 4450
	0    -1   1    0   
$EndComp
$Comp
L LED D?
U 1 1 591F69FF
P 9050 3650
F 0 "D?" H 9150 3600 50  0000 C CNN
F 1 "LED" H 9050 3550 50  0001 C CNN
F 2 "" H 9050 3650 50  0001 C CNN
F 3 "" H 9050 3650 50  0001 C CNN
	1    9050 3650
	0    -1   1    0   
$EndComp
$Comp
L LED D?
U 1 1 591F6A05
P 8750 3650
F 0 "D?" H 8850 3600 50  0000 C CNN
F 1 "LED" H 8750 3550 50  0001 C CNN
F 2 "" H 8750 3650 50  0001 C CNN
F 3 "" H 8750 3650 50  0001 C CNN
	1    8750 3650
	0    -1   1    0   
$EndComp
$Comp
L LED D?
U 1 1 591F6A0B
P 8950 4050
F 0 "D?" H 9050 4000 50  0000 C CNN
F 1 "LED" H 8950 3950 50  0001 C CNN
F 2 "" H 8950 4050 50  0001 C CNN
F 3 "" H 8950 4050 50  0001 C CNN
	1    8950 4050
	0    -1   1    0   
$EndComp
$Comp
L LED D?
U 1 1 591F6A11
P 8850 4450
F 0 "D?" H 8950 4400 50  0000 C CNN
F 1 "LED" H 8850 4350 50  0001 C CNN
F 2 "" H 8850 4450 50  0001 C CNN
F 3 "" H 8850 4450 50  0001 C CNN
	1    8850 4450
	0    -1   1    0   
$EndComp
$Comp
L LED D?
U 1 1 591F6A17
P 8650 4050
F 0 "D?" H 8750 4000 50  0000 C CNN
F 1 "LED" H 8650 3950 50  0001 C CNN
F 2 "" H 8650 4050 50  0001 C CNN
F 3 "" H 8650 4050 50  0001 C CNN
	1    8650 4050
	0    -1   1    0   
$EndComp
$Comp
L TLC5926 U?
U 1 1 591F89FB
P 7200 2550
F 0 "U?" H 7200 1850 50  0000 C CNN
F 1 "TLC5926" H 7200 3250 50  0000 C CNN
F 2 "" H 7200 2650 60  0000 C CNN
F 3 "" H 7200 2650 60  0000 C CNN
	1    7200 2550
	1    0    0    -1  
$EndComp
$Comp
L LED D?
U 1 1 591F8A21
P 8400 3650
F 0 "D?" H 8500 3600 50  0000 C CNN
F 1 "LED" H 8400 3550 50  0001 C CNN
F 2 "" H 8400 3650 50  0001 C CNN
F 3 "" H 8400 3650 50  0001 C CNN
	1    8400 3650
	0    -1   1    0   
$EndComp
$Comp
L LED D?
U 1 1 591F8A27
P 8300 4050
F 0 "D?" H 8400 4000 50  0000 C CNN
F 1 "LED" H 8300 3950 50  0001 C CNN
F 2 "" H 8300 4050 50  0001 C CNN
F 3 "" H 8300 4050 50  0001 C CNN
	1    8300 4050
	0    -1   1    0   
$EndComp
$Comp
L LED D?
U 1 1 591F8A2D
P 8200 4450
F 0 "D?" H 8300 4400 50  0000 C CNN
F 1 "LED" H 8200 4350 50  0001 C CNN
F 2 "" H 8200 4450 50  0001 C CNN
F 3 "" H 8200 4450 50  0001 C CNN
	1    8200 4450
	0    -1   1    0   
$EndComp
$Comp
L LED D?
U 1 1 591F8A33
P 8100 3650
F 0 "D?" H 8200 3600 50  0000 C CNN
F 1 "LED" H 8100 3550 50  0001 C CNN
F 2 "" H 8100 3650 50  0001 C CNN
F 3 "" H 8100 3650 50  0001 C CNN
	1    8100 3650
	0    -1   1    0   
$EndComp
$Comp
L LED D?
U 1 1 591F8A39
P 7800 3650
F 0 "D?" H 7900 3600 50  0000 C CNN
F 1 "LED" H 7800 3550 50  0001 C CNN
F 2 "" H 7800 3650 50  0001 C CNN
F 3 "" H 7800 3650 50  0001 C CNN
	1    7800 3650
	0    -1   1    0   
$EndComp
$Comp
L LED D?
U 1 1 591F8A3F
P 8000 4050
F 0 "D?" H 8100 4000 50  0000 C CNN
F 1 "LED" H 8000 3950 50  0001 C CNN
F 2 "" H 8000 4050 50  0001 C CNN
F 3 "" H 8000 4050 50  0001 C CNN
	1    8000 4050
	0    -1   1    0   
$EndComp
$Comp
L LED D?
U 1 1 591F8A45
P 7900 4450
F 0 "D?" H 8000 4400 50  0000 C CNN
F 1 "LED" H 7900 4350 50  0001 C CNN
F 2 "" H 7900 4450 50  0001 C CNN
F 3 "" H 7900 4450 50  0001 C CNN
	1    7900 4450
	0    -1   1    0   
$EndComp
$Comp
L LED D?
U 1 1 591F8A4B
P 7700 4050
F 0 "D?" H 7800 4000 50  0000 C CNN
F 1 "LED" H 7700 3950 50  0001 C CNN
F 2 "" H 7700 4050 50  0001 C CNN
F 3 "" H 7700 4050 50  0001 C CNN
	1    7700 4050
	0    -1   1    0   
$EndComp
$Comp
L LED D?
U 1 1 591F8A51
P 6750 3650
F 0 "D?" H 6850 3600 50  0000 C CNN
F 1 "LED" H 6750 3550 50  0001 C CNN
F 2 "" H 6750 3650 50  0001 C CNN
F 3 "" H 6750 3650 50  0001 C CNN
	1    6750 3650
	0    -1   1    0   
$EndComp
$Comp
L LED D?
U 1 1 591F8A57
P 6650 4050
F 0 "D?" H 6750 4000 50  0000 C CNN
F 1 "LED" H 6650 3950 50  0001 C CNN
F 2 "" H 6650 4050 50  0001 C CNN
F 3 "" H 6650 4050 50  0001 C CNN
	1    6650 4050
	0    -1   1    0   
$EndComp
$Comp
L LED D?
U 1 1 591F8A5D
P 6550 4450
F 0 "D?" H 6650 4400 50  0000 C CNN
F 1 "LED" H 6550 4350 50  0001 C CNN
F 2 "" H 6550 4450 50  0001 C CNN
F 3 "" H 6550 4450 50  0001 C CNN
	1    6550 4450
	0    -1   1    0   
$EndComp
$Comp
L LED D?
U 1 1 591F8A63
P 6450 3650
F 0 "D?" H 6550 3600 50  0000 C CNN
F 1 "LED" H 6450 3550 50  0001 C CNN
F 2 "" H 6450 3650 50  0001 C CNN
F 3 "" H 6450 3650 50  0001 C CNN
	1    6450 3650
	0    -1   1    0   
$EndComp
$Comp
L LED D?
U 1 1 591F8A69
P 6150 3650
F 0 "D?" H 6250 3600 50  0000 C CNN
F 1 "LED" H 6150 3550 50  0001 C CNN
F 2 "" H 6150 3650 50  0001 C CNN
F 3 "" H 6150 3650 50  0001 C CNN
	1    6150 3650
	0    -1   1    0   
$EndComp
$Comp
L LED D?
U 1 1 591F8A6F
P 6350 4050
F 0 "D?" H 6450 4000 50  0000 C CNN
F 1 "LED" H 6350 3950 50  0001 C CNN
F 2 "" H 6350 4050 50  0001 C CNN
F 3 "" H 6350 4050 50  0001 C CNN
	1    6350 4050
	0    -1   1    0   
$EndComp
$Comp
L LED D?
U 1 1 591F8A75
P 6250 4450
F 0 "D?" H 6350 4400 50  0000 C CNN
F 1 "LED" H 6250 4350 50  0001 C CNN
F 2 "" H 6250 4450 50  0001 C CNN
F 3 "" H 6250 4450 50  0001 C CNN
	1    6250 4450
	0    -1   1    0   
$EndComp
$Comp
L LED D?
U 1 1 591F8A7B
P 6050 4050
F 0 "D?" H 6150 4000 50  0000 C CNN
F 1 "LED" H 6050 3950 50  0001 C CNN
F 2 "" H 6050 4050 50  0001 C CNN
F 3 "" H 6050 4050 50  0001 C CNN
	1    6050 4050
	0    -1   1    0   
$EndComp
$Comp
L R R?
U 1 1 591F8BAC
P 7200 1400
F 0 "R?" V 7280 1400 50  0000 C CNN
F 1 "R" V 7200 1400 50  0000 C CNN
F 2 "" V 7130 1400 50  0001 C CNN
F 3 "" H 7200 1400 50  0001 C CNN
	1    7200 1400
	0    1    1    0   
$EndComp
$Comp
L R R?
U 1 1 591F8ED5
P 9800 1400
F 0 "R?" V 9880 1400 50  0000 C CNN
F 1 "R" V 9800 1400 50  0000 C CNN
F 2 "" V 9730 1400 50  0001 C CNN
F 3 "" H 9800 1400 50  0001 C CNN
	1    9800 1400
	0    1    1    0   
$EndComp
$Comp
L C C?
U 1 1 591F8F4B
P 7200 1650
F 0 "C?" H 7225 1750 50  0000 L CNN
F 1 "C" H 7225 1550 50  0000 L CNN
F 2 "" H 7238 1500 50  0001 C CNN
F 3 "" H 7200 1650 50  0001 C CNN
	1    7200 1650
	0    1    1    0   
$EndComp
$Comp
L C C?
U 1 1 591F9118
P 9800 1650
F 0 "C?" H 9825 1750 50  0000 L CNN
F 1 "C" H 9825 1550 50  0000 L CNN
F 2 "" H 9838 1500 50  0001 C CNN
F 3 "" H 9800 1650 50  0001 C CNN
	1    9800 1650
	0    1    1    0   
$EndComp
$Comp
L R_Network05 RN?
U 1 1 5920EE41
P 9800 12050
F 0 "RN?" V 9500 12050 50  0000 C CNN
F 1 "33k" H 9850 12250 50  0000 C CNN
F 2 "Resistors_THT:R_Array_SIP6" V 10175 12050 50  0001 C CNN
F 3 "" H 9800 12050 50  0001 C CNN
	1    9800 12050
	-1   0    0    1   
$EndComp
$Comp
L CONN_01X06 J?
U 1 1 5920F76A
P 10550 10800
F 0 "J?" H 10550 11150 50  0000 C CNN
F 1 "KB_01-OUTPUT" V 10650 10800 50  0000 C CNN
F 2 "" H 10550 10800 50  0001 C CNN
F 3 "" H 10550 10800 50  0001 C CNN
	1    10550 10800
	1    0    0    -1  
$EndComp
$Comp
L CONN_01X05 J?
U 1 1 5920F864
P 10550 11550
F 0 "J?" H 10550 11850 50  0000 C CNN
F 1 "KB_02-INPUT" V 10650 11550 50  0000 C CNN
F 2 "" H 10550 11550 50  0001 C CNN
F 3 "" H 10550 11550 50  0001 C CNN
	1    10550 11550
	1    0    0    -1  
$EndComp
$Comp
L HE10-20 J?
U 1 1 59210A67
P 1900 1100
F 0 "J?" H 1900 1650 50  0000 C CNN
F 1 "HE10-20" H 1900 550 50  0000 C CNN
F 2 "" H 1900 1100 50  0001 C CNN
F 3 "" H 1900 1100 50  0001 C CNN
	1    1900 1100
	1    0    0    -1  
$EndComp
$Comp
L HE10-20 J?
U 1 1 59210BE2
P 1900 2300
F 0 "J?" H 1900 2850 50  0000 C CNN
F 1 "HE10-20" H 1900 1750 50  0000 C CNN
F 2 "" H 1900 2300 50  0001 C CNN
F 3 "" H 1900 2300 50  0001 C CNN
	1    1900 2300
	1    0    0    -1  
$EndComp
Text GLabel 1150 650  0    60   Input ~ 0
3v3
Text GLabel 1150 750  0    60   Input ~ 0
GPIO2
Text GLabel 1150 850  0    60   Input ~ 0
GPIO3
Text GLabel 1150 950  0    60   Input ~ 0
GPIO4
Text GLabel 1150 1050 0    60   Input ~ 0
GND
Text GLabel 1150 1150 0    60   Input ~ 0
GPIO17
Text GLabel 1150 1250 0    60   Input ~ 0
GPIO27
Text GLabel 1150 1350 0    60   Input ~ 0
GPIO22
Text GLabel 1150 1450 0    60   Input ~ 0
3V3
Text GLabel 1150 1550 0    60   Input ~ 0
SPI0_MOSI
Text GLabel 1150 1850 0    60   Input ~ 0
SPI0_MISO
Text GLabel 1150 1950 0    60   Input ~ 0
SPI0_SCLK
Text GLabel 1150 2050 0    60   Input ~ 0
GND
Text GLabel 1150 2150 0    60   Input ~ 0
ID_SD
Text GLabel 1150 2250 0    60   Input ~ 0
GPIO5
Text GLabel 1150 2350 0    60   Input ~ 0
GPIO6
Text GLabel 1150 2450 0    60   Input ~ 0
GPIO13
Text GLabel 1150 2550 0    60   Input ~ 0
GPIO19
Text GLabel 1150 2650 0    60   Input ~ 0
GPIO26
Text GLabel 1150 2750 0    60   Input ~ 0
GND
Text GLabel 2650 650  2    60   Input ~ 0
5V
Text GLabel 2650 750  2    60   Input ~ 0
5V
Text GLabel 2650 850  2    60   Input ~ 0
GND
Text GLabel 2650 1250 2    60   Input ~ 0
GND
Text GLabel 2650 1550 2    60   Input ~ 0
GND
Text GLabel 2650 2450 2    60   Input ~ 0
GND
Text GLabel 2650 2250 2    60   Input ~ 0
GND
Text GLabel 2650 950  2    60   Input ~ 0
GPIO14
Text GLabel 2650 1050 2    60   Input ~ 0
GPIO15
Text GLabel 2650 1150 2    60   Input ~ 0
GPIO18
Text GLabel 2650 1350 2    60   Input ~ 0
GPIO23
Text GLabel 2650 1450 2    60   Input ~ 0
GPIO24
Text GLabel 2650 1850 2    60   Input ~ 0
GPIO25
Text GLabel 2650 1950 2    60   Input ~ 0
SPI0_CE0
Text GLabel 2650 2050 2    60   Input ~ 0
SPI0_CE1
Text GLabel 2650 2150 2    60   Input ~ 0
ID_SC
Text GLabel 2650 2350 2    60   Input ~ 0
GPIO12
Text GLabel 2650 2550 2    60   Input ~ 0
GPIO16
Text GLabel 2650 2650 2    60   Input ~ 0
GPIO20
Text GLabel 2650 2750 2    60   Input ~ 0
GPIO21
Text GLabel 4400 1100 0    60   Input ~ 0
GND
Text GLabel 9900 12550 0    60   Input ~ 0
GND
Text GLabel 9400 11350 0    60   Input ~ 0
INPUT01
Text GLabel 8950 11450 0    60   Input ~ 0
INPUT02
Text GLabel 9400 11550 0    60   Input ~ 0
INPUT03
Text GLabel 8950 11650 0    60   Input ~ 0
INPUT04
Text GLabel 9400 11750 0    60   Input ~ 0
INPUT05
Text GLabel 9400 10550 0    60   Input ~ 0
GPIO2
Text GLabel 9800 10650 0    60   Input ~ 0
GPIO3
Text GLabel 9400 10750 0    60   Input ~ 0
GPIO4
Text GLabel 9800 10850 0    60   Input ~ 0
GPIO17
Text GLabel 9400 10950 0    60   Input ~ 0
GPIO27
Text GLabel 9800 11050 0    60   Input ~ 0
GPIO22
Text GLabel 4200 2000 0    60   Input ~ 0
GND
Text GLabel 3800 2100 0    60   Input ~ 0
GPIO21
Text GLabel 4200 2200 0    60   Input ~ 0
GPIO20
Text GLabel 3800 2300 0    60   Input ~ 0
GPIO16
$Comp
L 74HC595 U?
U 1 1 5921B742
P 2700 7250
F 0 "U?" H 2850 7850 50  0000 C CNN
F 1 "74HC595" H 2700 6650 50  0000 C CNN
F 2 "" H 2700 7250 50  0001 C CNN
F 3 "" H 2700 7250 50  0001 C CNN
	1    2700 7250
	1    0    0    -1  
$EndComp
$Comp
L 74HC595 U?
U 1 1 5921B997
P 2700 8750
F 0 "U?" H 2850 9350 50  0000 C CNN
F 1 "74HC595" H 2700 8150 50  0000 C CNN
F 2 "" H 2700 8750 50  0001 C CNN
F 3 "" H 2700 8750 50  0001 C CNN
	1    2700 8750
	1    0    0    -1  
$EndComp
$Comp
L 74HC595 U?
U 1 1 5921BB1C
P 2700 10250
F 0 "U?" H 2850 10850 50  0000 C CNN
F 1 "74HC595" H 2700 9650 50  0000 C CNN
F 2 "" H 2700 10250 50  0001 C CNN
F 3 "" H 2700 10250 50  0001 C CNN
	1    2700 10250
	1    0    0    -1  
$EndComp
$Comp
L 74HC595 U?
U 1 1 5921BC0A
P 2700 11750
F 0 "U?" H 2850 12350 50  0000 C CNN
F 1 "74HC595" H 2700 11150 50  0000 C CNN
F 2 "" H 2700 11750 50  0001 C CNN
F 3 "" H 2700 11750 50  0001 C CNN
	1    2700 11750
	1    0    0    -1  
$EndComp
Text GLabel 1100 7400 0    60   Input ~ 0
GND
Text GLabel 1100 7300 0    60   Input ~ 0
GPIO25
Text GLabel 1100 7100 0    60   Input ~ 0
5V
Text GLabel 1100 7000 0    60   Input ~ 0
GPIO12
Text GLabel 1100 6800 0    60   Input ~ 0
GPIO21
$Comp
L CONN_01X08 J?
U 1 1 59224D4F
P 2050 12550
F 0 "J?" H 2050 13000 50  0000 C CNN
F 1 "CONN_01X08" V 2150 12550 50  0000 C CNN
F 2 "" H 2050 12550 50  0001 C CNN
F 3 "" H 2050 12550 50  0001 C CNN
	1    2050 12550
	1    0    0    -1  
$EndComp
$Comp
L 4052 U?
U 1 1 592253AA
P 7650 10750
F 0 "U?" H 7750 10750 50  0000 C CNN
F 1 "4052" H 7750 10550 50  0000 C CNN
F 2 "" H 7650 10750 60  0001 C CNN
F 3 "" H 7650 10750 60  0001 C CNN
	1    7650 10750
	0    1    1    0   
$EndComp
$Comp
L 4051 U?
U 1 1 59225593
P 6250 8900
F 0 "U?" H 6350 8900 50  0000 C CNN
F 1 "4051" H 6350 8700 50  0000 C CNN
F 2 "" H 6250 8900 60  0001 C CNN
F 3 "" H 6250 8900 60  0001 C CNN
	1    6250 8900
	0    1    1    0   
$EndComp
$Comp
L 4051 U?
U 1 1 59225820
P 7650 8900
F 0 "U?" H 7750 8900 50  0000 C CNN
F 1 "4051" H 7750 8700 50  0000 C CNN
F 2 "" H 7650 8900 60  0001 C CNN
F 3 "" H 7650 8900 60  0001 C CNN
	1    7650 8900
	0    1    1    0   
$EndComp
$Comp
L 4051 U?
U 1 1 5922590A
P 9000 8900
F 0 "U?" H 9100 8900 50  0000 C CNN
F 1 "4051" H 9100 8700 50  0000 C CNN
F 2 "" H 9000 8900 60  0001 C CNN
F 3 "" H 9000 8900 60  0001 C CNN
	1    9000 8900
	0    1    1    0   
$EndComp
$Comp
L 4051 U?
U 1 1 59226133
P 10350 8900
F 0 "U?" H 10450 8900 50  0000 C CNN
F 1 "4051" H 10450 8700 50  0000 C CNN
F 2 "" H 10350 8900 60  0001 C CNN
F 3 "" H 10350 8900 60  0001 C CNN
	1    10350 8900
	0    1    1    0   
$EndComp
Wire Wire Line
	9400 3100 9350 3100
Wire Wire Line
	9350 3100 9350 3500
Wire Wire Line
	9400 3000 9250 3000
Wire Wire Line
	9250 3000 9250 3900
Wire Wire Line
	9400 2900 9150 2900
Wire Wire Line
	9150 2900 9150 4300
Wire Wire Line
	9400 2800 9050 2800
Wire Wire Line
	9050 2800 9050 3500
Wire Wire Line
	9400 2700 8950 2700
Wire Wire Line
	8950 2700 8950 3900
Wire Wire Line
	9400 2600 8850 2600
Wire Wire Line
	8850 2600 8850 4300
Wire Wire Line
	9400 2500 8750 2500
Wire Wire Line
	8750 2500 8750 3500
Wire Wire Line
	9400 2400 8650 2400
Wire Wire Line
	8650 2400 8650 3900
Wire Wire Line
	10200 3100 10300 3100
Wire Wire Line
	10300 3100 10300 3900
Wire Wire Line
	10200 3000 10400 3000
Wire Wire Line
	10400 3000 10400 3500
Wire Wire Line
	10200 2900 10500 2900
Wire Wire Line
	10500 2900 10500 4300
Wire Wire Line
	10200 2800 10600 2800
Wire Wire Line
	10600 2800 10600 3900
Wire Wire Line
	10200 2700 10700 2700
Wire Wire Line
	10700 2700 10700 3500
Wire Wire Line
	10200 2600 10800 2600
Wire Wire Line
	10800 2600 10800 4300
Wire Wire Line
	10200 2500 10900 2500
Wire Wire Line
	10900 2500 10900 3900
Wire Wire Line
	10200 2400 11000 2400
Wire Wire Line
	11000 2400 11000 3500
Wire Wire Line
	10300 4800 10300 4200
Wire Wire Line
	11000 4800 11000 3800
Wire Wire Line
	10500 4800 10500 4600
Connection ~ 10500 4800
Wire Wire Line
	10800 4800 10800 4600
Connection ~ 10800 4800
Wire Wire Line
	10900 4800 10900 4200
Connection ~ 10900 4800
Wire Wire Line
	10700 4800 10700 3800
Connection ~ 10700 4800
Wire Wire Line
	10600 4800 10600 4200
Connection ~ 10600 4800
Wire Wire Line
	10400 4800 10400 3800
Connection ~ 10400 4800
Wire Wire Line
	9350 4800 9350 3800
Wire Wire Line
	8650 4800 8650 4200
Wire Wire Line
	8850 4800 8850 4600
Connection ~ 8850 4800
Wire Wire Line
	8950 4800 8950 4200
Connection ~ 8950 4800
Wire Wire Line
	9150 4800 9150 4600
Connection ~ 9150 4800
Wire Wire Line
	9250 4800 9250 4200
Connection ~ 9250 4800
Wire Wire Line
	9050 4800 9050 3800
Connection ~ 9050 4800
Wire Wire Line
	8750 4800 8750 3800
Connection ~ 8750 4800
Connection ~ 10300 4800
Connection ~ 9350 4800
Wire Wire Line
	6800 3100 6750 3100
Wire Wire Line
	6750 3100 6750 3500
Wire Wire Line
	6800 3000 6650 3000
Wire Wire Line
	6650 3000 6650 3900
Wire Wire Line
	6800 2900 6550 2900
Wire Wire Line
	6550 2900 6550 4300
Wire Wire Line
	6800 2800 6450 2800
Wire Wire Line
	6450 2800 6450 3500
Wire Wire Line
	6800 2700 6350 2700
Wire Wire Line
	6350 2700 6350 3900
Wire Wire Line
	6800 2600 6250 2600
Wire Wire Line
	6250 2600 6250 4300
Wire Wire Line
	6800 2500 6150 2500
Wire Wire Line
	6150 2500 6150 3500
Wire Wire Line
	6800 2400 6050 2400
Wire Wire Line
	6050 2400 6050 3900
Wire Wire Line
	7600 3100 7700 3100
Wire Wire Line
	7700 3100 7700 3900
Wire Wire Line
	7600 3000 7800 3000
Wire Wire Line
	7800 3000 7800 3500
Wire Wire Line
	7600 2900 7900 2900
Wire Wire Line
	7900 2900 7900 4300
Wire Wire Line
	7600 2800 8000 2800
Wire Wire Line
	8000 2800 8000 3900
Wire Wire Line
	7600 2700 8100 2700
Wire Wire Line
	8100 2700 8100 3500
Wire Wire Line
	7600 2600 8200 2600
Wire Wire Line
	8200 2600 8200 4300
Wire Wire Line
	7600 2500 8300 2500
Wire Wire Line
	8300 2500 8300 3900
Wire Wire Line
	7600 2400 8400 2400
Wire Wire Line
	8400 2400 8400 3500
Wire Wire Line
	7700 4200 7700 4800
Wire Wire Line
	11100 4800 6050 4800
Wire Wire Line
	8400 4800 8400 3800
Wire Wire Line
	7900 4600 7900 4800
Connection ~ 7900 4800
Wire Wire Line
	8200 4600 8200 4800
Connection ~ 8200 4800
Wire Wire Line
	8300 4200 8300 4800
Connection ~ 8300 4800
Wire Wire Line
	8100 3800 8100 4800
Connection ~ 8100 4800
Wire Wire Line
	8000 4200 8000 4800
Connection ~ 8000 4800
Wire Wire Line
	7800 3800 7800 4800
Connection ~ 7800 4800
Wire Wire Line
	6750 3800 6750 4800
Wire Wire Line
	6050 4800 6050 4200
Wire Wire Line
	6250 4600 6250 4800
Connection ~ 6250 4800
Wire Wire Line
	6350 4200 6350 4800
Connection ~ 6350 4800
Wire Wire Line
	6550 4600 6550 4800
Connection ~ 6550 4800
Wire Wire Line
	6650 4200 6650 4800
Connection ~ 6650 4800
Wire Wire Line
	6450 3800 6450 4800
Connection ~ 6450 4800
Wire Wire Line
	6150 3800 6150 4800
Connection ~ 6150 4800
Connection ~ 7700 4800
Connection ~ 6750 4800
Wire Wire Line
	7600 2200 8500 2200
Wire Wire Line
	8500 2200 8500 2100
Wire Wire Line
	8500 2100 9400 2100
Wire Wire Line
	9400 900  9400 2000
Wire Wire Line
	9400 1650 9650 1650
Wire Wire Line
	9950 1650 11100 1650
Wire Wire Line
	10200 1650 10200 2000
Wire Wire Line
	7350 1650 7600 1650
Wire Wire Line
	7600 1650 7600 2000
Wire Wire Line
	6800 1650 7050 1650
Wire Wire Line
	6800 800  6800 2000
Wire Wire Line
	7350 1400 7700 1400
Wire Wire Line
	7700 1400 7700 2100
Wire Wire Line
	7700 2100 7600 2100
Wire Wire Line
	7050 1400 6800 1400
Connection ~ 6800 1650
Wire Wire Line
	9650 1400 9400 1400
Connection ~ 9400 1650
Wire Wire Line
	9950 1400 10300 1400
Wire Wire Line
	10300 1400 10300 2100
Wire Wire Line
	10300 2100 10200 2100
Connection ~ 8650 4800
Connection ~ 8400 4800
Wire Wire Line
	10200 2300 10400 2300
Wire Wire Line
	7600 2300 7800 2300
Wire Wire Line
	3800 2300 6800 2300
Wire Wire Line
	3800 2100 6800 2100
Wire Wire Line
	7800 2300 7800 1300
Wire Wire Line
	6700 1300 10400 1300
Wire Wire Line
	6700 2000 6700 1300
Wire Wire Line
	10400 1300 10400 2300
Connection ~ 7800 1300
Wire Wire Line
	9400 2200 9050 2200
Wire Wire Line
	9050 2200 9050 1100
Wire Wire Line
	9050 1100 6300 1100
Wire Wire Line
	6300 1100 6300 2200
Connection ~ 6300 2200
Wire Wire Line
	9400 2300 8950 2300
Wire Wire Line
	8950 2300 8950 1200
Wire Wire Line
	8950 1200 6400 1200
Wire Wire Line
	6400 1200 6400 2300
Connection ~ 6400 2300
Wire Wire Line
	6800 900  9400 900 
Connection ~ 9400 1400
Connection ~ 6800 1400
Wire Wire Line
	11100 700  11100 4800
Connection ~ 11000 4800
Connection ~ 10200 1650
Wire Wire Line
	3950 700  11100 700 
Connection ~ 11100 1650
Wire Wire Line
	3950 800  6800 800 
Connection ~ 6800 900 
Wire Wire Line
	9400 10550 10350 10550
Wire Wire Line
	9400 10750 10350 10750
Wire Wire Line
	9400 10950 10350 10950
Wire Wire Line
	9400 11750 10350 11750
Wire Wire Line
	9600 11750 9600 11850
Wire Wire Line
	9700 11650 9700 11850
Wire Wire Line
	9400 11550 10350 11550
Wire Wire Line
	9800 11550 9800 11850
Wire Wire Line
	8950 11450 10350 11450
Wire Wire Line
	9900 11450 9900 11850
Wire Wire Line
	9400 11350 10350 11350
Wire Wire Line
	10000 11350 10000 11850
Wire Wire Line
	10000 12250 10000 12550
Connection ~ 10000 11350
Connection ~ 9900 11450
Connection ~ 9800 11550
Connection ~ 9700 11650
Connection ~ 9600 11750
Wire Wire Line
	1150 650  1300 650 
Wire Wire Line
	1150 750  1300 750 
Wire Wire Line
	1150 850  1300 850 
Wire Wire Line
	1150 950  1300 950 
Wire Wire Line
	1150 1050 1300 1050
Wire Wire Line
	1150 1150 1300 1150
Wire Wire Line
	1150 1250 1300 1250
Wire Wire Line
	1150 1450 1300 1450
Wire Wire Line
	1150 1550 1300 1550
Wire Wire Line
	1150 1850 1300 1850
Wire Wire Line
	1150 1950 1300 1950
Wire Wire Line
	1150 2050 1300 2050
Wire Wire Line
	1150 2150 1300 2150
Wire Wire Line
	1150 2250 1300 2250
Wire Wire Line
	1150 2350 1300 2350
Wire Wire Line
	1150 2450 1300 2450
Wire Wire Line
	1150 2550 1300 2550
Wire Wire Line
	1150 2650 1300 2650
Wire Wire Line
	1150 2750 1300 2750
Wire Wire Line
	2500 650  2650 650 
Wire Wire Line
	2500 750  2650 750 
Wire Wire Line
	2500 850  2650 850 
Wire Wire Line
	2500 950  2650 950 
Wire Wire Line
	2500 1050 2650 1050
Wire Wire Line
	2500 1150 2650 1150
Wire Wire Line
	2500 1250 2650 1250
Wire Wire Line
	2500 1350 2650 1350
Wire Wire Line
	2500 1450 2650 1450
Wire Wire Line
	2500 1550 2650 1550
Wire Wire Line
	2500 1850 2650 1850
Wire Wire Line
	2500 1950 2650 1950
Wire Wire Line
	2500 2050 2650 2050
Wire Wire Line
	2500 2150 2650 2150
Wire Wire Line
	2650 2250 2500 2250
Wire Wire Line
	2500 2350 2650 2350
Wire Wire Line
	2500 2450 2650 2450
Wire Wire Line
	2500 2550 2650 2550
Wire Wire Line
	2500 2650 2650 2650
Wire Wire Line
	2500 2750 2650 2750
Wire Wire Line
	4400 1100 4700 1100
Wire Wire Line
	4700 1100 4700 800 
Connection ~ 4700 800 
Wire Wire Line
	10000 12550 9900 12550
Wire Wire Line
	2000 8300 1900 8300
Wire Wire Line
	1900 8300 1900 8000
Wire Wire Line
	1900 8000 3500 8000
Wire Wire Line
	3500 8000 3500 7700
Wire Wire Line
	3500 7700 3400 7700
Wire Wire Line
	2000 9800 1900 9800
Wire Wire Line
	1900 9800 1900 9500
Wire Wire Line
	1900 9500 3500 9500
Wire Wire Line
	3500 9500 3500 9200
Wire Wire Line
	3500 9200 3400 9200
Wire Wire Line
	2000 11300 1900 11300
Wire Wire Line
	1900 11300 1900 11000
Wire Wire Line
	1900 11000 3500 11000
Wire Wire Line
	3500 11000 3500 10700
Wire Wire Line
	3500 10700 3400 10700
Wire Wire Line
	1100 6800 2000 6800
Wire Wire Line
	1100 7000 2000 7000
Wire Wire Line
	1100 7100 2000 7100
Wire Wire Line
	1100 7300 2000 7300
Wire Wire Line
	1100 7400 2000 7400
Wire Wire Line
	2000 8500 1800 8500
Wire Wire Line
	1800 7000 1800 11500
Connection ~ 1800 7000
Wire Wire Line
	2000 8600 1700 8600
Wire Wire Line
	1700 7100 1700 11600
Connection ~ 1700 7100
Wire Wire Line
	2000 8800 1600 8800
Wire Wire Line
	1600 7300 1600 11800
Connection ~ 1600 7300
Wire Wire Line
	2000 8900 1500 8900
Wire Wire Line
	1500 7400 1500 11900
Connection ~ 1500 7400
Wire Wire Line
	1800 10000 2000 10000
Connection ~ 1800 8500
Wire Wire Line
	1700 10100 2000 10100
Connection ~ 1700 8600
Wire Wire Line
	1600 10300 2000 10300
Connection ~ 1600 8800
Wire Wire Line
	1500 10400 2000 10400
Connection ~ 1500 8900
Wire Wire Line
	1800 11500 2000 11500
Connection ~ 1800 10000
Wire Wire Line
	1700 11600 2000 11600
Connection ~ 1700 10100
Wire Wire Line
	1600 11800 2000 11800
Connection ~ 1600 10300
Wire Wire Line
	1500 11900 2000 11900
Connection ~ 1500 10400
Wire Wire Line
	8250 10050 10950 10050
Wire Wire Line
	10950 10050 10950 9600
Wire Wire Line
	8150 10050 8150 10000
Wire Wire Line
	8150 10000 9600 10000
Wire Wire Line
	9600 10000 9600 9600
Wire Wire Line
	8050 10050 8050 9950
Wire Wire Line
	8050 9950 8250 9950
Wire Wire Line
	8250 9950 8250 9600
Wire Wire Line
	9850 9600 9850 9650
Wire Wire Line
	9850 9650 5750 9650
Wire Wire Line
	5750 9600 5750 11450
Wire Wire Line
	7150 9600 7150 9650
Connection ~ 7150 9650
Wire Wire Line
	8500 9600 8500 9650
Connection ~ 8500 9650
Wire Wire Line
	7950 10050 7950 9700
Wire Wire Line
	7950 9700 6850 9700
Wire Wire Line
	6850 9700 6850 9600
Wire Wire Line
	9750 8100 9750 8200
Wire Wire Line
	5350 8100 9750 8100
Wire Wire Line
	5650 8100 5650 8200
Wire Wire Line
	7050 8200 7050 8100
Connection ~ 7050 8100
Wire Wire Line
	8400 8200 8400 8100
Connection ~ 8400 8100
Wire Wire Line
	9850 8050 9850 8200
Wire Wire Line
	5000 8050 9850 8050
Wire Wire Line
	5750 8050 5750 8200
Wire Wire Line
	7150 8200 7150 8050
Connection ~ 7150 8050
Wire Wire Line
	8500 8200 8500 8050
Connection ~ 8500 8050
Wire Wire Line
	5850 8200 5850 8000
Wire Wire Line
	5350 8000 9950 8000
Wire Wire Line
	9950 8000 9950 8200
Wire Wire Line
	8600 8200 8600 8000
Connection ~ 8600 8000
Wire Wire Line
	7250 8200 7250 8000
Connection ~ 7250 8000
Wire Wire Line
	5950 8200 5950 7950
Wire Wire Line
	5550 7950 10050 7950
Wire Wire Line
	10050 7950 10050 8200
Wire Wire Line
	8700 8200 8700 7950
Connection ~ 8700 7950
Wire Wire Line
	7350 8200 7350 7950
Connection ~ 7350 7950
Wire Wire Line
	7350 10050 7350 9750
Wire Wire Line
	7350 9750 5550 9750
Wire Wire Line
	5550 9750 5550 7950
Connection ~ 5950 7950
Connection ~ 5850 8000
Connection ~ 5750 8050
Connection ~ 5650 8100
Text GLabel 5000 7950 0    60   Input ~ 0
GPIO24
Text GLabel 5000 8050 0    60   Input ~ 0
GPIO23
Text GLabel 5000 8150 0    60   Input ~ 0
GPIO18
Text GLabel 5000 8250 0    60   Input ~ 0
GPIO15
Text GLabel 5000 8350 0    60   Input ~ 0
GPIO14
Wire Wire Line
	5000 7950 5350 7950
Wire Wire Line
	5350 7950 5350 8000
Wire Wire Line
	5000 8150 5350 8150
Wire Wire Line
	5350 8150 5350 8100
Wire Wire Line
	7150 10050 7150 9800
Wire Wire Line
	7150 9800 5500 9800
Wire Wire Line
	5500 9800 5500 8250
Wire Wire Line
	5500 8250 5000 8250
Wire Wire Line
	7050 10050 7050 9850
Wire Wire Line
	7050 9850 5450 9850
Wire Wire Line
	5450 9850 5450 8350
Wire Wire Line
	5450 8350 5000 8350
Text GLabel 5000 8450 0    60   Input ~ 0
GPIO2
Wire Wire Line
	5750 11450 7150 11450
Connection ~ 5750 9650
Wire Wire Line
	8250 11450 8250 11550
Wire Wire Line
	8250 11550 5400 11550
Wire Wire Line
	5400 11550 5400 8450
Wire Wire Line
	5400 8450 5000 8450
Wire Notes Line
	3200 500  3200 3000
Wire Notes Line
	3200 500  600  500 
Wire Notes Line
	600  500  600  3000
Wire Notes Line
	3300 500  11150 500 
Wire Notes Line
	11150 500  11150 5400
Wire Notes Line
	11150 5400 3300 5400
Wire Notes Line
	3300 5400 3300 500 
Text GLabel 1700 12200 0    60   Input ~ 0
LETTER_A
Text GLabel 1200 12300 0    60   Input ~ 0
LETTER_B
Text GLabel 1700 12400 0    60   Input ~ 0
LETTER_C
Text GLabel 1200 12500 0    60   Input ~ 0
LETTER_D
Text GLabel 1200 12700 0    60   Input ~ 0
LETTER_F
Text GLabel 1200 12900 0    60   Input ~ 0
LETTER_H
Text GLabel 1700 12600 0    60   Input ~ 0
LETTER_E
Text GLabel 1700 12800 0    60   Input ~ 0
LETTER_G
$Comp
L CONN_01X08 J?
U 1 1 5921D56E
P 2050 13550
F 0 "J?" H 2050 14000 50  0000 C CNN
F 1 "CONN_01X08" V 2150 13550 50  0000 C CNN
F 2 "" H 2050 13550 50  0001 C CNN
F 3 "" H 2050 13550 50  0001 C CNN
	1    2050 13550
	1    0    0    -1  
$EndComp
Text GLabel 1700 13200 0    60   Input ~ 0
LETTER_I
Text GLabel 1200 13300 0    60   Input ~ 0
LETTER_J
Text GLabel 1700 13400 0    60   Input ~ 0
LETTER_K
Text GLabel 1200 13500 0    60   Input ~ 0
LETTER_L
Text GLabel 1200 13700 0    60   Input ~ 0
LETTER_N
Text GLabel 1200 13900 0    60   Input ~ 0
LETTER_P
Text GLabel 1700 13600 0    60   Input ~ 0
LETTER_M
Text GLabel 1700 13800 0    60   Input ~ 0
LETTER_O
$Comp
L CONN_01X08 J?
U 1 1 5921D6B4
P 2050 14550
F 0 "J?" H 2050 15000 50  0000 C CNN
F 1 "CONN_01X08" V 2150 14550 50  0000 C CNN
F 2 "" H 2050 14550 50  0001 C CNN
F 3 "" H 2050 14550 50  0001 C CNN
	1    2050 14550
	1    0    0    -1  
$EndComp
Text GLabel 1700 14200 0    60   Input ~ 0
LETTER_Q
Text GLabel 1200 14300 0    60   Input ~ 0
LETTER_R
Text GLabel 1700 14400 0    60   Input ~ 0
LETTER_S
Text GLabel 1200 14500 0    60   Input ~ 0
LETTER_T
Text GLabel 1200 14700 0    60   Input ~ 0
LETTER_V
Text GLabel 1200 14900 0    60   Input ~ 0
LETTER_X
Text GLabel 1700 14600 0    60   Input ~ 0
LETTER_U
Text GLabel 1700 14800 0    60   Input ~ 0
LETTER_W
Text GLabel 1700 15200 0    60   Input ~ 0
LETTER_Y
Text GLabel 1200 15300 0    60   Input ~ 0
LETTER_Z
$Comp
L CONN_01X02 J?
U 1 1 5921E3D5
P 2050 15250
F 0 "J?" H 2050 15400 50  0000 C CNN
F 1 "CONN_01X02" V 2150 15250 50  0000 C CNN
F 2 "" H 2050 15250 50  0001 C CNN
F 3 "" H 2050 15250 50  0001 C CNN
	1    2050 15250
	1    0    0    -1  
$EndComp
Wire Wire Line
	1700 12200 1850 12200
Wire Wire Line
	1200 12300 1850 12300
Wire Wire Line
	1700 12400 1850 12400
Wire Wire Line
	1200 12500 1850 12500
Wire Wire Line
	1700 12600 1850 12600
Wire Wire Line
	1200 12700 1850 12700
Wire Wire Line
	1700 12800 1850 12800
Wire Wire Line
	1200 12900 1850 12900
Wire Wire Line
	1700 13200 1850 13200
Wire Wire Line
	1700 13400 1850 13400
Wire Wire Line
	1700 13600 1850 13600
Wire Wire Line
	1700 13800 1850 13800
Wire Wire Line
	1200 13900 1850 13900
Wire Wire Line
	1200 13700 1850 13700
Wire Wire Line
	1200 13500 1850 13500
Wire Wire Line
	1200 13300 1850 13300
Wire Wire Line
	1700 14200 1850 14200
Wire Wire Line
	1700 14400 1850 14400
Wire Wire Line
	1700 14600 1850 14600
Wire Wire Line
	1700 14800 1850 14800
Wire Wire Line
	1700 15200 1850 15200
Wire Wire Line
	1200 15300 1850 15300
Wire Wire Line
	1200 14900 1850 14900
Wire Wire Line
	1200 14700 1850 14700
Wire Wire Line
	1200 14500 1850 14500
Wire Wire Line
	1200 14300 1850 14300
Text GLabel 3550 6800 2    60   Input ~ 0
LETTER_A
Text GLabel 4050 6900 2    60   Input ~ 0
LETTER_B
Text GLabel 3550 7000 2    60   Input ~ 0
LETTER_C
Text GLabel 4050 7100 2    60   Input ~ 0
LETTER_D
Text GLabel 4050 7300 2    60   Input ~ 0
LETTER_F
Text GLabel 4050 7500 2    60   Input ~ 0
LETTER_H
Text GLabel 3550 7200 2    60   Input ~ 0
LETTER_E
Text GLabel 3550 7400 2    60   Input ~ 0
LETTER_G
Wire Wire Line
	3550 6800 3400 6800
Wire Wire Line
	4050 6900 3400 6900
Wire Wire Line
	3550 7000 3400 7000
Wire Wire Line
	4050 7100 3400 7100
Wire Wire Line
	3550 7200 3400 7200
Wire Wire Line
	4050 7300 3400 7300
Wire Wire Line
	3550 7400 3400 7400
Wire Wire Line
	4050 7500 3400 7500
Text GLabel 3550 8300 2    60   Input ~ 0
LETTER_I
Text GLabel 4050 8400 2    60   Input ~ 0
LETTER_J
Text GLabel 3550 8500 2    60   Input ~ 0
LETTER_K
Text GLabel 4050 8600 2    60   Input ~ 0
LETTER_L
Text GLabel 4050 8800 2    60   Input ~ 0
LETTER_N
Text GLabel 4050 9000 2    60   Input ~ 0
LETTER_P
Text GLabel 3550 8700 2    60   Input ~ 0
LETTER_M
Text GLabel 3550 8900 2    60   Input ~ 0
LETTER_O
Wire Wire Line
	3550 8300 3400 8300
Wire Wire Line
	3550 8500 3400 8500
Wire Wire Line
	3550 8700 3400 8700
Wire Wire Line
	3550 8900 3400 8900
Wire Wire Line
	4050 9000 3400 9000
Wire Wire Line
	4050 8800 3400 8800
Wire Wire Line
	4050 8600 3400 8600
Wire Wire Line
	4050 8400 3400 8400
Text GLabel 3550 9800 2    60   Input ~ 0
LETTER_Q
Text GLabel 4050 9900 2    60   Input ~ 0
LETTER_R
Text GLabel 3550 10000 2    60   Input ~ 0
LETTER_S
Text GLabel 4050 10100 2    60   Input ~ 0
LETTER_T
Text GLabel 4050 10300 2    60   Input ~ 0
LETTER_V
Text GLabel 4050 10500 2    60   Input ~ 0
LETTER_X
Text GLabel 3550 10200 2    60   Input ~ 0
LETTER_U
Text GLabel 3550 10400 2    60   Input ~ 0
LETTER_W
Wire Wire Line
	3550 9800 3400 9800
Wire Wire Line
	3550 10000 3400 10000
Wire Wire Line
	3550 10200 3400 10200
Wire Wire Line
	3550 10400 3400 10400
Wire Wire Line
	4050 10500 3400 10500
Wire Wire Line
	4050 10300 3400 10300
Wire Wire Line
	4050 10100 3400 10100
Wire Wire Line
	4050 9900 3400 9900
Text GLabel 3550 11300 2    60   Input ~ 0
LETTER_Y
Text GLabel 4050 11400 2    60   Input ~ 0
LETTER_Z
Wire Wire Line
	3550 11300 3400 11300
Wire Wire Line
	4050 11400 3400 11400
Text GLabel 6150 7150 1    60   Input ~ 0
LETTER_A
Text GLabel 6250 6650 1    60   Input ~ 0
LETTER_B
Text GLabel 6350 7150 1    60   Input ~ 0
LETTER_C
Text GLabel 6450 6650 1    60   Input ~ 0
LETTER_D
Text GLabel 6650 6650 1    60   Input ~ 0
LETTER_F
Text GLabel 6850 6650 1    60   Input ~ 0
LETTER_H
Text GLabel 6550 7150 1    60   Input ~ 0
LETTER_E
Text GLabel 6750 7150 1    60   Input ~ 0
LETTER_G
Wire Wire Line
	6150 7150 6150 8200
Wire Wire Line
	6250 6650 6250 8200
Wire Wire Line
	6350 7150 6350 8200
Wire Wire Line
	6450 6650 6450 8200
Wire Wire Line
	6550 7150 6550 8200
Wire Wire Line
	6650 6650 6650 8200
Wire Wire Line
	6750 7150 6750 8200
Wire Wire Line
	6850 6650 6850 8200
Text GLabel 7550 7150 1    60   Input ~ 0
LETTER_I
Text GLabel 7650 6650 1    60   Input ~ 0
LETTER_J
Text GLabel 7750 7150 1    60   Input ~ 0
LETTER_K
Text GLabel 7850 6650 1    60   Input ~ 0
LETTER_L
Text GLabel 8050 6650 1    60   Input ~ 0
LETTER_N
Text GLabel 8250 6650 1    60   Input ~ 0
LETTER_P
Text GLabel 7950 7150 1    60   Input ~ 0
LETTER_M
Text GLabel 8150 7150 1    60   Input ~ 0
LETTER_O
Wire Wire Line
	7550 7150 7550 8200
Wire Wire Line
	7750 7150 7750 8200
Wire Wire Line
	7950 7150 7950 8200
Wire Wire Line
	8150 7150 8150 8200
Wire Wire Line
	8250 6650 8250 8200
Wire Wire Line
	8050 6650 8050 8200
Wire Wire Line
	7850 6650 7850 8200
Wire Wire Line
	7650 6650 7650 8200
Text GLabel 8900 7150 1    60   Input ~ 0
LETTER_Q
Text GLabel 9000 6650 1    60   Input ~ 0
LETTER_R
Text GLabel 9100 7150 1    60   Input ~ 0
LETTER_S
Text GLabel 9200 6650 1    60   Input ~ 0
LETTER_T
Text GLabel 9400 6650 1    60   Input ~ 0
LETTER_V
Text GLabel 9600 6650 1    60   Input ~ 0
LETTER_X
Text GLabel 9300 7150 1    60   Input ~ 0
LETTER_U
Text GLabel 9500 7150 1    60   Input ~ 0
LETTER_W
Wire Wire Line
	8900 7150 8900 8200
Wire Wire Line
	9100 7150 9100 8200
Wire Wire Line
	9300 7150 9300 8200
Wire Wire Line
	9500 7150 9500 8200
Wire Wire Line
	9600 6650 9600 8200
Wire Wire Line
	9400 6650 9400 8200
Wire Wire Line
	9200 6650 9200 8200
Wire Wire Line
	9000 6650 9000 8200
Text GLabel 10250 7650 1    60   Input ~ 0
LETTER_Y
Text GLabel 10350 7150 1    60   Input ~ 0
LETTER_Z
Wire Wire Line
	10350 7150 10350 8200
Wire Wire Line
	10250 7650 10250 8200
Text Notes 10100 12500 0    100  ~ 0
Steckers Part
Text Notes 10250 5350 0    100  ~ 0
Lamps Part
Text Notes 10050 12650 0    100  ~ 0
Keyboard Part
Text Notes 2400 2950 0    100  ~ 0
GPIO Part
Wire Notes Line
	600  3000 3200 3000
Wire Wire Line
	9800 10650 10350 10650
Wire Wire Line
	9800 10850 10350 10850
Wire Wire Line
	9800 11050 10350 11050
Wire Wire Line
	4200 2000 6700 2000
Wire Wire Line
	4200 2200 6800 2200
Wire Wire Line
	1150 1350 1300 1350
Text GLabel 10950 7150 1    60   Input ~ 0
INPUT01
Text GLabel 10850 7650 1    60   Input ~ 0
INPUT02
Text GLabel 10750 7150 1    60   Input ~ 0
INPUT03
Text GLabel 10650 7650 1    60   Input ~ 0
INPUT04
Text GLabel 10550 7150 1    60   Input ~ 0
INPUT05
Wire Wire Line
	10550 7150 10550 8200
Wire Wire Line
	10650 7650 10650 8200
Wire Wire Line
	10750 7150 10750 8200
Wire Wire Line
	10850 7650 10850 8200
Wire Wire Line
	10950 7150 10950 8200
Wire Notes Line
	11150 5500 11150 12700
Wire Notes Line
	11150 12700 4200 12700
Wire Wire Line
	8950 11650 10350 11650
$Comp
L R_Network08 RN?
U 1 1 592280A2
P 7150 7550
F 0 "RN?" V 6650 7550 50  0000 C CNN
F 1 "R_Network08" V 7550 7550 50  0001 C CNN
F 2 "Resistors_THT:R_Array_SIP9" V 7625 7550 50  0001 C CNN
F 3 "" H 7150 7550 50  0001 C CNN
	1    7150 7550
	0    1    1    0   
$EndComp
$Comp
L R_Network08 RN?
U 1 1 592282ED
P 8500 7550
F 0 "RN?" V 8000 7550 50  0000 C CNN
F 1 "R_Network08" V 8900 7550 50  0001 C CNN
F 2 "Resistors_THT:R_Array_SIP9" V 8975 7550 50  0001 C CNN
F 3 "" H 8500 7550 50  0001 C CNN
	1    8500 7550
	0    1    1    0   
$EndComp
$Comp
L R_Network08 RN?
U 1 1 592283E0
P 9850 7550
F 0 "RN?" V 9350 7550 50  0000 C CNN
F 1 "R_Network08" V 10250 7550 50  0001 C CNN
F 2 "Resistors_THT:R_Array_SIP9" V 10325 7550 50  0001 C CNN
F 3 "" H 9850 7550 50  0001 C CNN
	1    9850 7550
	0    1    1    0   
$EndComp
Wire Wire Line
	6850 7150 6950 7150
Connection ~ 6850 7150
Wire Wire Line
	6950 7250 6750 7250
Connection ~ 6750 7250
Wire Wire Line
	6950 7350 6650 7350
Connection ~ 6650 7350
Wire Wire Line
	6950 7450 6550 7450
Connection ~ 6550 7450
Wire Wire Line
	6950 7550 6450 7550
Connection ~ 6450 7550
Wire Wire Line
	6950 7650 6350 7650
Connection ~ 6350 7650
Wire Wire Line
	6950 7750 6250 7750
Connection ~ 6250 7750
Wire Wire Line
	6950 7850 6150 7850
Connection ~ 6150 7850
Wire Wire Line
	8300 7150 8250 7150
Connection ~ 8250 7150
Wire Wire Line
	8300 7250 8150 7250
Connection ~ 8150 7250
Wire Wire Line
	8300 7350 8050 7350
Connection ~ 8050 7350
Wire Wire Line
	8300 7450 7950 7450
Connection ~ 7950 7450
Wire Wire Line
	8300 7550 7850 7550
Connection ~ 7850 7550
Wire Wire Line
	8300 7650 7750 7650
Connection ~ 7750 7650
Wire Wire Line
	8300 7750 7650 7750
Connection ~ 7650 7750
Wire Wire Line
	8300 7850 7550 7850
Connection ~ 7550 7850
Wire Wire Line
	9650 7150 9600 7150
Connection ~ 9600 7150
Wire Wire Line
	9650 7250 9500 7250
Connection ~ 9500 7250
Wire Wire Line
	9650 7350 9400 7350
Connection ~ 9400 7350
Wire Wire Line
	9650 7450 9300 7450
Connection ~ 9300 7450
Wire Wire Line
	9650 7550 9200 7550
Connection ~ 9200 7550
Wire Wire Line
	9650 7650 9100 7650
Connection ~ 9100 7650
Wire Wire Line
	9650 7750 9000 7750
Connection ~ 9000 7750
Wire Wire Line
	9650 7850 8900 7850
Connection ~ 8900 7850
Wire Wire Line
	7350 7150 7350 5950
Wire Wire Line
	7350 5950 10300 5950
Wire Wire Line
	10050 5950 10050 7150
Wire Wire Line
	8700 7150 8700 5950
Connection ~ 8700 5950
Text GLabel 10300 5950 2    60   Input ~ 0
GND
Connection ~ 10050 5950
Wire Notes Line
	11150 5500 600  5500
Wire Notes Line
	600  5500 600  15600
Wire Notes Line
	600  15600 4200 15600
Wire Notes Line
	4200 15600 4200 12700
Text GLabel 3550 11500 2    60   Input ~ 0
RotorI+
Text GLabel 4050 11600 2    60   Input ~ 0
RotorI-
Text GLabel 3550 11700 2    60   Input ~ 0
RotorII+
Text GLabel 3550 11900 2    60   Input ~ 0
RotorIII+
Text GLabel 4050 11800 2    60   Input ~ 0
RotorII-
Text GLabel 4050 12000 2    60   Input ~ 0
RotorIII-
Wire Wire Line
	3400 11500 3550 11500
Wire Wire Line
	3400 11600 4050 11600
Wire Wire Line
	3400 11700 3550 11700
Wire Wire Line
	3400 11900 3550 11900
Wire Wire Line
	3400 11800 4050 11800
Wire Wire Line
	3400 12000 4050 12000
$Comp
L CONN_01X06 J?
U 1 1 592609A6
P 3900 13750
F 0 "J?" H 3900 14100 50  0000 C CNN
F 1 "CONN_01X06" V 4000 13750 50  0000 C CNN
F 2 "" H 3900 13750 50  0001 C CNN
F 3 "" H 3900 13750 50  0001 C CNN
	1    3900 13750
	1    0    0    -1  
$EndComp
Text GLabel 3600 13500 0    60   Input ~ 0
RotorI+
Text GLabel 3150 13600 0    60   Input ~ 0
RotorI-
Text GLabel 3600 13700 0    60   Input ~ 0
RotorII+
Text GLabel 3600 13900 0    60   Input ~ 0
RotorIII+
Text GLabel 3150 13800 0    60   Input ~ 0
RotorII-
Text GLabel 3150 14000 0    60   Input ~ 0
RotorIII+
Wire Wire Line
	3600 13500 3700 13500
Wire Wire Line
	3600 13700 3700 13700
Wire Wire Line
	3600 13900 3700 13900
Wire Wire Line
	3150 13600 3700 13600
Wire Wire Line
	3150 13800 3700 13800
Wire Wire Line
	3150 14000 3700 14000
Text GLabel 10450 7650 1    60   Input ~ 0
RotorsIN
Wire Wire Line
	10450 7650 10450 8200
$EndSCHEMATC
